^C:\USERS\WENQI\DESKTOP\PROJECTS\NAMEDPIPESERVER\NAMEDPIPESERVER\RELEASE\MAIN_SERVER.OBJ
C:\USERS\WENQI\DESKTOP\PROJECTS\NAMEDPIPESERVER\RELEASE\NAMEDPIPESERVER.EXE
C:\USERS\WENQI\DESKTOP\PROJECTS\NAMEDPIPESERVER\NAMEDPIPESERVER\RELEASE\NAMEDPIPESERVER.IPDB
C:\USERS\WENQI\DESKTOP\PROJECTS\NAMEDPIPESERVER\NAMEDPIPESERVER\RELEASE\NAMEDPIPESERVER.IOBJ
C:\USERS\WENQI\DESKTOP\PROJECTS\NAMEDPIPESERVER\RELEASE\NAMEDPIPESERVER.PDB
